TV Calling - For educational purposes only

SONY PICTURES TELEVISION INC. © 2011 All Rights Reserved No portion of this script may be performed, or reproduced by any means, or quoted, or published in any medium without prior written consent of SONY PICTURES TELEVISION INC. 10202 West Washington Boulevard Culver City, CA 90232                                                                                                                     Episode 205   Spooky Endings   Written by  Daniel Libman & Matthew Libman   Directed by  Fred Savage     Shooting Script                             08/26/11  Shooting Script (Full Blue)            08/26/11  Shooting Script (Full Pink)            08/29/11 (Pg. 8A,12,12A,19,20-21,20-21A,24,24A, 25,26, 27,27A,27B) Shooting Script (Yellow Rev.)       08/29/11  NOTE: Episode shooting 4th   TV Calling - For educational purposes only

Happy Endings      "Spooky Endings" [205]  a. Shooting Script (Full Pink)                 08/29/11   CAST  JANE....................................................................................................Eliza Coupe  ALEX...............................................................................................Elisha Cuthbert  DAVE...........................................................................................Zachary Knighton  MAX......................................................................................................Adam Pally  BRAD.......................................................................................Damon Wayans, Jr.  PENNY...............................................................................................Casey Wilson    A.J....................................................................................................Will Greenberg  HENRY...............................................................................................David Walton  KID ...................................................................................................Brock Charles  MC ..................................................................................................................TBD  POLICE OFFICER ..........................................................................Marcus Folmar  RICK ....................................................................................................Matt Besser  SEXY BUMBLEBEE .....................................................................Alice Macdonald  SEXY NUN ......................................................................Nicole Foster Tomlinson   STORE EMPLOYEE...........................................................................Brian Tichnell  TEEN ............................................................................................Kasey Campbell   TV Calling - For educational purposes only

Happy Endings      "Spooky Endings" [205]  b. Shooting Script  (Full Pink)               08/29/11  SETS   INTERIORS  CONVENIENCE STORE JANE & BRAD’S APARTMENT JANE & BRAD’S CAR PENNY & ALEX’S CONDO ROSALITA’S RUBINS’ HOUSE   WAREHOUSE PARTY  BAR  BATRHROOM  BUFFET  DANCEFLOOR  LOUNGE AREA  STAGE AREA  TABLE                                EXTERIORS  RUBINS’ HOUSE    DRIVEWAY SUBURBAN STREET WAREHOUSE PARTY    TV Calling - For educational purposes only

COLD OPENFADE IN:INT. PENNY & ALEX’S CONDO - NIGHT (NIGHT 1)11Max, Dave, Brad and Jane stand around the island.  Max swigs from a handle of bourbon.  DAVE(to Max)Don’t you think you should leave a little something in the tank for tomorrow, buddy?  It is Halloween. MAXIt’s called pre-gaming.  Halloween *is the Super Bowl of drinking.BRADIsn’t the Super Bowl the Super Bowl of drinking?MAXNo, the Super Bowl is the Halloween of football.BRADWhat?  Anyway, I can’t wait for this year’s Monster Mash Bash.  The *buffet, the drag-queen contest, the smoking hot girrr... illa costumes.  *(off looks)It’s basically a gorilla costume but slightly singed like when you age a document.  JANEHoney, we’re not going to the party, remember?  We talked about this.BRADNo we didn’t.   POP TO:INT. JANE & BRAD’S APARTMENT - NIGHT - FLASHBACK22Brad sits playing video games.  Jane hovers over him. Happy Endings     "Spooky Endings" [205]     1.Shooting Script (Full Pink)08/29/11      (C/O)(CONTINUED)TV Calling - For educational purposes only

JANEBrad, I am hereby informing you that we will not be going to the Monster *Mash Bash.  We will be house-sitting *for the Rubins.  Please confirm you’re listening by repeating what I just said.BRAD(without looking up)We will not be going to the Monster *Mash Bash.  We will be house-sitting *for the Rubins.BACK TO:INT. PENNY & ALEX’S CONDO - CONTINUOUS (NIGHT 1)33BRADFirst I’m hearing of this.Penny enters.  She looks bummed. PENNYGuys, Adam ended it with me.  *JANE/DAVE/MAX*Aww, sorry./Who?/Hated him. *PENNY*Everything was going so great, and *then I suggested a couples costume and he fuh-reaked out.  *JANEPen, there’s no bigger couples costume advocate than me -- you’ve read my blog -- but you can’t hit a guy with a couples costume after three weeks.  *BRADClassic Penny overreach.MAXYou might as well have asked him to marry you, you stupid idiot.(off looks)What?  I thought it was a pile on.Happy Endings     "Spooky Endings" [205]     2.Shooting Script (Full Pink)08/29/11      (C/O)CONTINUED:22(CONTINUED)TV Calling - For educational purposes only

PENNYIt wasn’t romantic or anything.  It *was just me as a new mom and him as an infant in a baby bjorn and-- Oh my God, what was I thinking? Happy Endings     "Spooky Endings" [205]     2A.Shooting Script (Full Pink)08/29/11      (C/O)CONTINUED:33(CONTINUED)TV Calling - For educational purposes only

MAXAh Penny, Penny, Penny, Penny, Penny, Penny, Penny, Penny, Penny--  PENNYWhat?!MAXI’ll do it.  I’ll be your baby.PENNYI didn’t ask you to do it.MAXYou didn’t have to.  Pen, I’m always there for you.  You’re going through a devastating breakup--PENNYNope.  I’m fine.  MAXOh denial, the first step of refusing to admit things--*JANEHis Lady Gaga meat suit went bad and he needs a costume to get into the party.  MAXThe butcher who made my costume did *not specify -- just lemme be your *wing-baby.  I’ll even wear a diaper all night.PENNYNot a selling point.MAXFor me it is.  Halloween is the Labor Day of urinating.BRADWait, so that would make Labor Day the Wimbledon of having sex.  MAXYes!  You get me, bro. They high-five. Happy Endings     "Spooky Endings" [205]     3.Shooting Script (Full Pink)08/29/11      (C/O)CONTINUED: (2)33(CONTINUED)TV Calling - For educational purposes only

DAVEWell, I finally get to wear my dream costume because I don’t have to do a stupid couples costume anymore.From O.S., we hear Alex COUGH.  REVEAL: Alex on the couch in sweats surrounded by a sick station: Humidifier, neti pot, bottles and boxes of medicine.  She looks very sick. ALEXFor the record, you were the one who always made us wear couples costumes.Happy Endings     "Spooky Endings" [205]     3A.Shooting Script (Full Pink)08/29/11      (C/O)CONTINUED: (3)33(CONTINUED)TV Calling - For educational purposes only

DAVEThat is not true.ALEXReally?  So it was my idea for us to *go as “Carlito’s Way” Sean Penn and “I Am Sam” Sean Penn?  DAVEI thought you loved “Double Penn”! ALEXNo.  I did not.  But best of luck, my friend, ‘cause tomorrow I get to wear the costume I’ve been dying to wear too.  And I’m gonna look smoking hot-- *Alex coughs grossly.  Everybody stares at her.  Then:JANEAl, you’re not going anywhere.  You look like a finger in a ten-hour bath.  You look like Brett Butler after a karate class.  You look like Regis after a motorcycle accident--  Sorry, I thought it was a pile on. FADE OUT.END OF COLD OPENHappy Endings     "Spooky Endings" [205]     4.Shooting Script (Full Pink)08/29/11      (C/O)CONTINUED: (4)33TV Calling - For educational purposes only

ACT ONEFADE IN:INT. JANE AND BRAD’S CAR - NIGHT (NIGHT 2)44Jane (BACON COSTUME) and Brad (street clothes) cruise down an idyllic suburban street.  Brad looks annoyed.  JANEI can’t believe you wouldn’t wear the egg costume.  What’s bacon without eggs?  BRADI’m not gonna waste my Denver omelette costume on a night in the suburbs.  (then)I can’t believe you signed us up for housesitting on Halloween.JANEBrad, we get to spend a nice night in a beautiful house.  And don’t you *wanna see all the cute trick-or-treaters?BRADIf I wanna watch kids, I’ll go eat my lunch in the park.  JANEWhat?  C’mon, it’ll be like test-driving our future.  We agreed we wanted to raise our kids in the suburbs.   BRADNo, you agreed.   I wanna raise our kids in the city.  The suburbs are boring.  The city’s exciting.  JANECity kids grow up way too fast.  They drink, they smoke, they get *addicted to river boat Pai Gow and *eventually have to steal and sell *their dad’s carpet cleaning van then *blame the whole thing on Alex.*Happy Endings     "Spooky Endings" [205]     5.Shooting Script (Full Pink)08/29/11      (I)(CONTINUED)TV Calling - For educational purposes only

BRADMan, Pai Gow is a tricky bitch. They pull up to the house.  JANEAww.  C’mon, look at how beautiful *Breezy Acres is.BRADThey named their house?  Who names *their house?JANEYou named your favorite pair of sweatpants.BRADHey, you leave Karen out of this.EXT. WAREHOUSE PARTY - NIGHT (NIGHT 2)55Penny and Max totter awkwardly towards the venue entrance in the MOTHER AND BABY TANDEM COSTUME! PENNYC’mon, Max, I’m not just gonna push you on this stool all night.  Help me.  Left, right, left, just like we talked about.  Also, exactly like normal walking.   MAXUgh, you sound like my real mom.  “Walk like this.  Clean up that.  Stop describing my figure as hilarious.” Penny drops her clutch.PENNYWhoops.  Max can you-- Can we? They bend down to retrieve Penny’s clutch at the same time as RICK, dressed as ABRAHAM LINCOLN.  It’s your standard movie meet-cute except there are three people. RICKHi. PENNY/MAXHey./Hello. Happy Endings     "Spooky Endings" [205]     6.Shooting Script (Full Pink)08/29/11      (I)CONTINUED:44(CONTINUED)TV Calling - For educational purposes only

RICKYou heading into the party?PENNY/MAXYeah./You betcha. RICKI’m Rick.  PENNY/MAXPenny./Max. MAXJust to clarify, which one of us were you flirting with, mainly?RICKThe mom.  Exclusively.  You’re a little too young and a little too --you’re a guy. (to Penny)Maybe I’ll see you in there, m’lady.  PENNYMaybe you will, m’president.  Rick crosses off.  Penny turns to Max. MAXWow, being straight seems like a lotta work.    DAVE (O.S.)(British accent)Do I make you horny? Max and Penny turn.  REVEAL: Dave dressed as AUSTIN POWERS.MAXThat’s the dream costume you’ve been *dying to wear? DAVEYeah baby, yeah. Happy Endings     "Spooky Endings" [205]     7.Shooting Script (Full Pink)08/29/11      (I)CONTINUED:55(CONTINUED)TV Calling - For educational purposes only

PENNYOkay, can you just talk--DAVENo baby, no-- Fine.  Guys, Austin Powers!  Sweet, right?  I just wish Alex was here to watch this kill.*PENNYWell, she’s pretty out of it.  When I put her to bed, she said she couldn’t marry me because her father owned the plantation, so I doubt she’s coming.MAX(looking O.S.; dramatic voice)Guess again. DAVEWhat? MAXSomeone had a different idea.DAVEWho?PENNYAnd what was the initial idea?MAX(regular voice)Just look over there. They all turn to REVEAL: Alex as MARILYN MONROE walking in SLO-MO.  They ad lib “Wows”.  A guy dressed as a 80s PREPPIE *tips down his Ray-bans to check her out.  As she approaches, we return to regular speed and the music cuts out--ALEX(sneezes)Aah-chooo! (then, VERY HOARSE)Hey guys, good news!  Whatever I have isn’t from that bird I kissed! INT. RUBINS’ HOUSE - A LITTLE LATER (NIGHT 2)66Brad and Jane walk through the large home.  Happy Endings     "Spooky Endings" [205]     8.Shooting Script (Full Pink)08/29/11      (I)CONTINUED: (2)55(CONTINUED)TV Calling - For educational purposes only

JANEWow.  C’mon.  You’re telling me you wouldn’t wanna live in a place like this?  Square footage, check.  The sound of crickets in the yard, check.  Quiche stone, check plus...BRADDon’t want those things.  Except for the quiche stone.  I mean, that baby *would pay for itself in like three quiches.  Luckily, I can get one in the city.  JANEYou know what we can’t get in the city?Happy Endings     "Spooky Endings" [205]     8A.Shooting Script (Yellow Rev.) 08/29/11      (I)CONTINUED:66(CONTINUED)TV Calling - For educational purposes only

Jane flips the BACK PORCH light on REVEALING a HOT TUB.  BRAD(awed)Breezy Acres has hot tub? *JANE(sexy)Yes.  It.  Do.  And I can’t wait to get in that thing with you.  We’re gonna be so hot that we will make...our own bubbles. (off Brad’s look)I get why that’s not sexy. BRAD(unzips his jacket)*I’ll give you the benefit of the doubt.The doorbell rings.  JANE(zips jacket back up)*Unh, unh, unh.  First, we have to hand out all of this candy.  Jane hands Brad a GIANT BOWL overflowing with candy.BRADCan’t we just make a sign and have the kids meet us back at the tub?*JANESo your plan is to use the promise of candy to lure children to a grown man in a hot tub. BRADWell now that I’ve heard the plan out loud -- I like it even more.INT. WAREHOUSE PARTY - BAR - A LITTLE LATER (NIGHT 2)77Penny rolls up to the bar a little too quickly.  Max flails his baby arms, trying to avoid slamming into the bar.MAXBaby on board!  Coming in hot!Penny misjudges and Max hits his head on the bar.Happy Endings     "Spooky Endings" [205]     9.Shooting Script (Full Pink)08/29/11      (I)CONTINUED: (2)66(CONTINUED)TV Calling - For educational purposes only

ANGLE ON: Alex (very hoarse) and Dave stand at the bar.  DAVE(”check me out”)What do you think, Al?   ALEX(sarcastic)Super topical.  I can’t wait to see your Borat costume in nine years.  (bad Borat impression)Is not going to be nice.  I won’t like.  Wow, wow, wee-wow.DAVEHey, this costume is awesome.  Crushed velvet jacket, period glasses, period teeth--(then, noticing)Dammit, I left the teeth in the cab.  *(then)Doesn’t matter.  Still gonna kill it tonight.   *Dave turns to a SEXY NUN at the bar.DAVE (CONT’D)Shall we shag now, or shag later?*SEXY NUN(not into it)How about never?  Sweet Elton John *costume, loser.*She moves off.  Alex laughs.ALEXYou do look like Elton John.DAVEWell you sound like Brett Butler.  *ALEX*Jane already used that one. *DAVE*No, she said you look like Brett *Butler. *A handsome guy, HENRY, approaches Alex. Happy Endings     "Spooky Endings" [205]     10.Shooting Script (Full Pink)08/29/11      (I)CONTINUED:77(CONTINUED)TV Calling - For educational purposes only

HENRYHi, I’m Henry.  You make a stunning Marilyn.   Happy Endings     "Spooky Endings" [205]     10A.Shooting Script (Full Pink)08/29/11      (I)CONTINUED: (2)77(CONTINUED)TV Calling - For educational purposes only

ALEXThanks, Mr. Cubs player.*HENRYOoh, and a sexy voice to match.  Can I buy you a drink?(notices Dave)Oh man, sorry.  Are you guys together? DAVEYeah, baby!-- No.  We’re actually not together.  Just friends.  Funny story: there was this rollerblader--ALEXI’d love to get a drink.Alex walks off with Henry.INT./EXT. RUBINS’ HOUSE - NIGHT (NIGHT 2)88Jane hands out candy to a little girl dressed as a PRINCESS and boy dressed as an ASTRONAUT as Brad stares longingly at the hot tub.JANELook at you little munchkins.  So cute! BRADOh, hot tub.  I want me inside you.JANEYou know the drill.  Each take one.The boy takes one right away.  The girl sifts through the bowl, taking forever.  Brad approaches.BRADHow ‘bout you get your lady to put a chop chop on this.  The choice is candy or candy. They both look up blankly.  The girl then goes back to sifting through the candy.BRAD (CONT’D)Okay.(takes bowl and puts it down)Happy Endings     "Spooky Endings" [205]     11.Shooting Script (Full Pink)08/29/11      (I)CONTINUED: (3)77(MORE)(CONTINUED)TV Calling - For educational purposes only

Here.  Honor system. *Brad shuts the door.  JANEWhat are you doing?BRADUs a favor.  Let’s tub.JANENo, I wanna hand out the candy.  That’s part of the suburban experience.Jane opens the door to see a KID dressed in SCRUBS and  surgical HEADLAMP holding the bowl, empty.  KIDYou’re out.BRADSorry, doc, you’ll have to go St. Elsewhere.   He closes the door, but the Kid’s foot stops it.KIDYou should get some more candy.  The big kids are coming.BRADWhat does that mean?KID(eerily, sing-songy)*You’ll see...The Kid sprints away.INT. WAREHOUSE PARTY - DANCEFLOOR - NIGHT (NIGHT 2)99Penny and Max dance to an upbeat club song.  Max uses his baby arms to dance.  Penny feeds Max a beer.  Rick dances up.  RICKHey, can I dance with you? PENNY/MAXOf course./No. Happy Endings     "Spooky Endings" [205]     12.Shooting Script (Yellow Rev.) 08/29/11      (I)CONTINUED:88BRAD (CONT’D)(CONTINUED)TV Calling - For educational purposes only

Penny dances Max aside (they dance throughout). PENNYC’mon Max, he’s funny.  I like him.  Just one dance.  Wing-baby?   MAXFine.  One dance. Penny dances Max back to Rick. PENNYDance accepted, señor presidente.  RICKMucho.  Mucho Gusto.  Max rolls his eyes as they start dancing.  The song immediately ends.  A slow song begins. Happy Endings     "Spooky Endings" [205]     12A.Shooting Script (Yellow Rev.) 08/29/11      (I)CONTINUED:99(CONTINUED)TV Calling - For educational purposes only

MAXThat was fun.  Who needs a drink?  I need a drink.  Penny, drink?  RICK(puts out his hand)Shall we? FLIP TO:OMITTED1010INT. WAREHOUSE PARTY - DANCEFLOOR - MOMENTS LATER (NIGHT 2)1111PAN Down: Rick and Penny dance close.  As we PAN farther, we REVEAL: Max smushed between them.  He starts chewing on one of Rick’s jacket buttons to comfort himself.ANGLE ON: Henry approaches Dave. HENRYHey, so I really kinda dig your friend. DAVEYeah, Alex is super cool.  We split up a while back, doing my own thing now.  Lovin’ being back in the game. Hating myself for calling it the game.  But, what are you gonna do?  It’s the game.HENRY(dismissive)Yeah, cool.  So, Alex -- what’s his story? DAVESorry, what?  HENRYAlex, your ex-boyfriend.  What’s up with him? DAVEUhhhhhhhhhhhhhhhhhhhhhhhh...FADE OUT.END OF ACT ONEHappy Endings     "Spooky Endings" [205]     13.Shooting Script (Full Pink)08/29/11      (I)CONTINUED: (2)99TV Calling - For educational purposes only

ACT TWOFADE IN:OMITTED1212INT./EXT. RUBINS’ HOUSE - NIGHT (NIGHT 2)1313Brad hands out items to 12 and 13-year-olds in scary costumes/masks.  He names each item as he hands it out. BRADYogurt, wheat bread, yogurt, lunch meat, heavy cream, sandwich bag, box that sandwich bags came in, and for you: an entire cake.  Have a great night. He slams the door shut.  To Jane:BRAD (CONT’D)See, Jane?  We don’t need candy.    Everything’s gonna be--THWAP!  The cake hits the window behind Brad.  Brad and Jane jump, scared.  Brad whips open the front door: no one there.  Happy Endings     "Spooky Endings" [205]     14.Shooting Script (Full Pink)08/29/11      (II)(CONTINUED)TV Calling - For educational purposes only

BRAD (CONT’D)(yells off)Alright, very funny.  Apparently someone doesn’t care for fondant.  You got us!He closes the door. JANEWhat are we gonna do?BRAD Babe, don’t worry, I got a plan.  We’ll just turn off the lights, pretend like we’re not home, and hide.  In the hot tub.CRASH!  A brick sails through the window.  On it, a note. JANE(reading)“We know you’re home.  Get candy.  Over.”  Over?Brad indicates “flip it over”.  She flips it.  JANE (CONT’D)“No Smarties.”INT. WAREHOUSE PARTY - BAR - LATER (NIGHT 2)1414Penny flirts at the bar with Rick (Abe Lincoln) from before.  PENNYWhen you talk about iconic facial hair, you gotta put Lincoln near the top, right?RICKYeah, it’s pretty much Lincoln, Yosemite Sam, my Aunt Ruth, and *Hitler.  And people would’ve been very offended if I went as Aunt Ruth.  *(off Penny’s laugh)She was a huge Nazi.*PENNYOoh, presidential and funny.  I gotta be honest, Abe, I like it.Happy Endings     "Spooky Endings" [205]     15.Shooting Script (Full Pink)08/29/11      (II)CONTINUED:1313(CONTINUED)TV Calling - For educational purposes only

RICKThanks.  So, can I put your number in my Gettysburg Address-book?  MAX (O.S.)Oh.  My.  God!REVEAL: Max is stuck there, annoyed.MAX (CONT’D)Where’s a John Wilkes Booth when you *need one-- dammit, now I’m doing it.  Point is, I really want this whole *thing to be assassinated. *PENNY(to Rick)Excuse me for a second.Penny moves off with Max.PENNY (CONT’D)What are you doing? MAXYour brand of flirting makes me sad. Let’s go, I’m starving and I wanna hit that buffet. Operation wing-baby: aborted.  PENNYOkay, okay.  (to Rick)I’ll be right back...so we can keep our fragile union together?MAXWe have to Robert E. Leave now-- *ugh, I blame you for this. INT. WAREHOUSE PARTY - LOUNGE AREA - SAME TIME (NIGHT 2)1515Alex and Henry are sitting closely, laughing on a couch.  ALEXI’m so glad I came out tonight. HENRYYou came out tonight?  Happy Endings     "Spooky Endings" [205]     16.Shooting Script (Full Pink)08/29/11      (II)CONTINUED:1414(CONTINUED)TV Calling - For educational purposes only

ALEXYeah, and I almost didn’t come out.  But when my friend was tucking me in before the party, I was like, “This is ridiculous!  I have to come out!” Dave approaches. DAVEHey, Al.  Can I have a second? (pulls her aside)Look, you might want to take a beat on this Henry character-- ALEXLemme stop you right there.  I know what’s going on. DAVEYou do? ALEXWhat’s going on is that your solo costume isn’t working and mine is killing so hard, I met someone.  And who knows?  We might have something.  DAVEOh, he definitely thinks you have something.  Best wishes. Dave walks off grinning. INT. WAREHOUSE PARTY - BUFFET - SAME TIME (NIGHT 2)1616Penny scoops food onto Max’s plate as he lists it.  MAXCover the plate with taquitos.  Add *a nice layer of wings.  Douse it all *in bleu.  More, more, more, less.  *Seriously, put some back.  Now grab *a monte cristo and a handful of *salad, throw the salad in the *garbage, and then grab a second *monte cristo. PENNYThis just seems reckless. Happy Endings     "Spooky Endings" [205]     17.Shooting Script (Full Pink)08/29/11      (II)CONTINUED:1515(CONTINUED)TV Calling - For educational purposes only

MAXDo not question me.  Now grab that last crispy corner piece of mac ‘n cheese--  CLOSE ON: Penny’s spoon meets another spoon at the food.  REVEAL: A.J. (flight suit, aviators, beard).   MAX (CONT’D)Whoa, you better back off, beardo.A.J.You better back off, baby! (eyeing Max’s plate)Whoa, nice plate.  You’re hitting this buffet so hard right now.  MAX(notices A.J.’s plate)You too, you bitch.  I’m Max. A.J.A.J.  I like the way you like food. MAXThanks.  What is your costume-- wait, are you ZZ Top Gun?  That’s the first thing I’ve genuinely liked since Kurt Loder died. A.J.He’s still alive, but that’s really sweet of you to say.MAXWhere are those turkey legs at? A.J.Back there. MAXPen, go grab us a couple legs of turkey. PENNYUh, we’re connected. A.J.How ‘bout I grab you one and get us a table? Happy Endings     "Spooky Endings" [205]     17A.Shooting Script (Full Pink)08/29/11      (II)CONTINUED:1616(CONTINUED)TV Calling - For educational purposes only

MAXWhoa, you’re a gay guy?    A.J.Super gay. MAXSweet! Happy Endings     "Spooky Endings" [205]     17B.Shooting Script (Full Pink)08/29/11      (II)CONTINUED: (2)1616(CONTINUED)TV Calling - For educational purposes only

A.J. crosses off.  Penny spots something.   PENNYYour weird gay turkey party’s gonna *have to wait, ‘cause Slutty Betsy Ross is moving in on my Lincoln.  *MAXI wanna go to my gay turkey party! *Max starts, Penny doesn’t budge.  Max flails his baby arms.  PENNYThen you better get out of the costume.    MAXNo can do.  I ditched the boxers an hour ago.  It’s gettin’ hot in herr. PENNYNelly?  Well all I got goin’ under *here is a bathing suit, so...   MAXFine, we’ll take turns.PENNYGood.PENNY/MAXMe first.They both try to walk off in opposite directions.Happy Endings     "Spooky Endings" [205]     18.Shooting Script (Full Pink)08/29/11      (II)CONTINUED: (3)1616TV Calling - For educational purposes only

INT. CONVENIENCE STORE - LATER (NIGHT 2)1717Brad and Jane (in bacon costume) enter and hustle through. JANEI can’t believe you didn’t wear your egg costume.  We look like fools.      BRADWe?They spot a POLICE OFFICER and dash up to him. JANE Oh, thank God!  We tried calling you guys, but we got put on hold.   BRADThere are big kids on the loose and--POLICE OFFICERActually, I’m not a cop.  This is just a costume. BRADOh, sorry about that.JANEOkay, let’s just get the candy and get outta here! Brad and Jane bolt to the CANDY AISLE.  EMPTY!  BRADNo, no, no!  This can’t be happening.  C’mon, let’s just go *back to the city.Happy Endings     "Spooky Endings" [205]     19.Shooting Script (Yellow Rev.) 08/29/11      (II)(CONTINUED)TV Calling - For educational purposes only

JANENo.  We have an obligation to take care of Breezy Acres, and that’s exactly what we’re gonna do.They run up to a STORE EMPLOYEE in a smock.JANE (CONT’D)Excuse me, sir.  Is there any more candy anywhere in this store? STORE EMPLOYEESorry, I don’t actually work here.  This is a costume. JANEOh for the love of-- Does anyone work here? POLICE OFFICER (O.S.)I can take you on one. REVEAL: The police officer stands behind the register, now wearing a STORE APRON.  He’s actually a store employee! INT. WAREHOUSE PARTY - TABLE - A LITTLE LATER (NIGHT 2) 1818Penny stands bored while A.J. feeds Max a TURKEY LEG.  MAX(taking a bite)Mmm, now Penny, you feed A.J.  A.J.Mmm, yeah.  Gimme that wet skin bite right there and tell me it’s dinosaur.PENNYAaaaaand, time’s up.  Max, my turn.  *Let’s go talk to Rick.*MAXPenny, I don’t know how to tell you this, but Rick died.  Yeah, he passed away earlier tonight.PENNYMax.Happy Endings     "Spooky Endings" [205]     20-21.Shooting Script (Yellow Rev.) 08/29/11      (II)CONTINUED:1717(CONTINUED)TV Calling - For educational purposes only

MAXFine.  But listen, there’s been an accident.  It’s Rick.  We did everything we could.PENNYHe’s right there.MAXOkay, Rick’s not dead.  But I’m having fun with A.J., and your thing is probably just gonna be another *one of your three week relationships *that goes nowhere.  (beat, realizing)No offense.PENNYWhoa.  That was a little harsh.    Rick walks up.  Max doesn’t notice.    MAXPen, I’m sorry, I didn’t mean that.  It’s just that you’re too good for these guys.  Take Rick for instance: I hate his guts.  P.S., his jokes are stupid and he has a smelly belly button.  There’s no future there.RICKWell, that hurt my feelings.  Goodnight to you both. Rick walks off.  PENNYThanks a lot Max.Penny storms off.  Max rolls with her.  She stops.  PENNY (CONT’D)For the record, that was me storming off.Happy Endings     "Spooky Endings" [205]     20-21A.Shooting Script (Yellow Rev.) 08/29/11      (II)CONTINUED:1818TV Calling - For educational purposes only

INT. WAREHOUSE PARTY - LOUNGE AREA - SAME TIME (NIGHT 2)1919Alex and Henry kiss. HENRYThat was nice.ALEXYeah, you’re a pretty good Frencher.*HENRYThanks.(then)Can I be honest about something?  (re: her boobs)What’s going on right here is very impressive.  I mean, you’ve got some legit hooters.  You could have a party on that balcony.  ALEXThanks...?HENRYI mean, they look so real.  Where’d you get them?ALEXI don’t know, I guess my Aunt Linda had decent sized--  Wait, real?  What? HENRYCan I touch them?  ‘Cause those aren’t your run-of-the-mill chicken cutlets.  You should enter the drag *contest.  You’d be a lock. *Happy Endings     "Spooky Endings" [205]     22.Shooting Script (Full Pink)08/29/11      (II)(CONTINUED)TV Calling - For educational purposes only

ALEXWhat?  But that would be cheating -- *Could you excuse me for a second? *Alex waits until Henry is out of sight, then bolts off.  ANGLE ON: Dave mid-conversation with a SEXY GIRL in a bumblebee costume. SEXY BUMBLEBEEGreat costume, Piano Man.DAVENo, Piano Man is Billy Joel, not Elton John!  And I’m not Elton John, I’m Austin Powers!Alex interrupts. ALEXDave, you were right.  There’s something off about Henry.  DAVEI didn’t think I was gonna be able to use this line in context, but here goes: He thinks...you’re a man, *baby!  ALEXHow could he think I’m a dude?  There’s no way he thinks I’m a dude. Henry approaches holding the drinks. HENRY(to Alex)You ready to get outta here, dude?ALEX(to Dave)That does not prove anything. HENRY(to Alex)I can’t wait to see your penis. Off Alex’s shock and Dave’s “I told you so” look we...FADE OUT.END OF ACT TWOHappy Endings     "Spooky Endings" [205]     23.Shooting Script (Full Pink)08/29/11      (II)CONTINUED:1919TV Calling - For educational purposes only

ACT THREEFADE IN:EXT. RUBINS’ HOUSE - DRIVEWAY - LATER (NIGHT 2)2020Brad and Jane carry five full bags of candy from the car. BRADIt was a little weird buying candy out of a man’s trunk, but at least it was expensive.    As they walk up the walkway, they stop and realize--JANE Oh no, they trashed Breezy Acres. There is shaving cream, cracked eggs, toilet paper and smashed pumpkins strewn across the lawn and walkway.  KIDS *in scary costumes RUN BY making scary sounds! *BRADYou know, we wouldn’t be in this *mess if we’d just gone to the party instead of test-driving the suburbs. JANENo Brad, we’re in this mess because you gave away all the candy so you could get in that stupid hot tub! *BRADYou do not disparage that hot tub-- wait, this is what they want.  They want us to turn on each other. JANEYou’re right.  I’m sorry.  We’re *fine now anyway.  We have candy, *it’s gonna be all good.*They walk through the door. BRADDid this house used to have a door? The door is actually GONE!  They drop the candy.JANEOh my God, they stole the door!(grabs a NOTE; reads)“We have your door.  Over.”Happy Endings     "Spooky Endings" [205]     24.Shooting Script (Yellow Rev.) 08/29/11      (III)(MORE)(CONTINUED)TV Calling - For educational purposes only

(turns note over)“This isn’t over.”  BRADThat’s it!  I’m getting that door back.  This ends now!  Brad walks out.  Jane admires the note.JANE“Over, this isn’t over.”  These kids *are clever.  Good schools out here.Happy Endings     "Spooky Endings" [205]     24A.Shooting Script (Yellow Rev.) 08/29/11      (III)CONTINUED:2020JANE (CONT'D)TV Calling - For educational purposes only

EXT. SUBURBAN STREET - LATER (NIGHT 2)2121Brad is pumped, on the prowl.  He knocks candy out of BIG KIDS’ hands and then stiff arms another out of the way.  INT. RUBINS’ HOUSE - SAME TIME (NIGHT 2)2222Jane descends the stairs with a bat.  She hears something.  JANEBrad?  Is that you?Jane, scared, makes it to the bottom of the stairs.  Thinking she’s heard something, she turns and swings the bat wildly, nearly smashing a vase.  She catches it.  JANE (CONT’D)Oh, that was close.Relieved, she tucks her baseball bat in her arm and turns around, accidentally smashing a nearby lamp.JANE (CONT’D)Oh, no.Stunned at what she did, she turns around again, smashing the original vase.EXT. SUBURBAN STREET - SAME TIME (NIGHT 2)2323Brad spots a TEEN carrying a door!  He approaches.BRAD(weirdly calm)Hey, fella.  I couldn’t help but notice that--(screams)--you stole my door!  This is *property of Breezy Acres and I’m taking back the night!  And also the *door.*TEENDude, I have no idea what you’re talking about.  This is my costume.  *I’m meeting my friends at a *Halloween party.  We’re “The Doors.”  *The band. Happy Endings     "Spooky Endings" [205]     25.Shooting Script (Yellow Rev.) 08/29/11      (III)(CONTINUED)TV Calling - For educational purposes only

BRAD(laughing)Really?!  Like I’m supposed to believe that?  Which one are you?  TEENRay Manzarek. BRADThat’s not a real name!  Gimme the *damn door.As Brad wrestles the door away from the Teen we...INT. WAREHOUSE PARTY - BATHROOM - LATER (NIGHT 2)2424CLOSE ON: Penny’s face.PENNYUgh, everyone was right: couples costumes suck.  On so many levels. Pull out to REVEAL: she’s standing at the urinal with Max.MAXPen, I said I was sorry.(off her silence)So...would now be a bad time to ask for a little shake?  Just jump up and down.  A shiver?  Anything?  (then)Listen, I don’t know if Rick’s a good guy, but you’re the best girl in the world, and if you wanna be with him, I will gallantly sacrifice my budding relationship with A.J., who might be the greatest guy I’ve ever met, so you can be with Rick.Happy Endings     "Spooky Endings" [205]     26.Shooting Script (Yellow Rev.) 08/29/11      (III)CONTINUED:2323(CONTINUED)TV Calling - For educational purposes only

PENNYThis A.J.? Penny swings open a stall door to REVEAL: A.J. sitting on the toilet, eating, completely surrounded by tons of food. A.J.Don’t look at me!He kicks the stall door closed.MAX(puts baby hand on Penny’s cheek)Gallantly sacrifice...PENNYThanks.  But how am I supposed to get Rick back?  He hates you.  MAXYou still got that bathing suit on?INT. WAREHOUSE PARTY - A LITTLE LATER (NIGHT 2)A25A25Penny exits a bathroom in the costume, solo.  She’s cinched the waist and lost the baby bjorn.  She looks good.  After a beat, Max comes out in a one piece woman’s bathing suit.MAXGo.  Go get some Rick.INT. RUBINS’ HOUSE - NIGHT (NIGHT 2)B25B25Brad enters holding the door to find Jane attempting to glue a vase together.  BRADWhat the hell happened?JANEOh, Brad, it was horrible.  Forty or fifty kids showed up and just went crazy.BRADReally?  Forty or fifty kids only broke one vase?*Happy Endings     "Spooky Endings" [205]     27.Shooting Script (Yellow Rev.) 08/29/11      (III)CONTINUED:2424(CONTINUED)TV Calling - For educational purposes only

JANEAnd a lamp.  And I’m not a profiler, *Brad!  I can’t get inside their heads. BRADWell, I’m glad you’re safe.  And guess what else is safe?CUT TO:EXT. RUBINS’ HOUSE - MOMENTS LATER (NIGHT 2)C25C25Brad and Jane stare at the reattached door.  It’s TOO NARROW! BRAD(beat)I think Ray Manzarek’s a real dude. *JANEBrad, you were right.  The suburbs are horrible. BRAD(beat)You know what?  I respectfully disagree.  The suburbs are way more exciting than I thought.  I’ve never felt more alive.  SFX: We hear the squeal of tires as a car peels out.  BRAD (CONT’D)We will stay, and we will fight, and we will--*SPLAT!  REVEAL: Jane has been hit in the face with an egg. BRAD (CONT’D)Or we should go. Brad puts his arm around Jane and leads her to the car. BRAD (CONT’D)(laughing)Looks like bacon finally got her eggs. Just then, Brad gets HIT IN THE FACE WITH BACON! Happy Endings     "Spooky Endings" [205]     27A.Shooting Script (Yellow Rev.) 08/29/11      (III)CONTINUED:B25B25(CONTINUED)TV Calling - For educational purposes only

BRAD (CONT’D)(pissed)What kinda person bacons somebody?!INT. WAREHOUSE PARTY - LOUNGE AREA - SAME TIME (NIGHT 2)2525Dave walks up to Alex who sits by herself sadly.DAVEYou okay? ALEXThis night sucked.  DAVEIt’s been a rough night for me too.  This Austin Powers-Elton John thing has been a disas--(off look)Yours is worse.  Back to your thing.ALEXIt’s just that--DAVEGod am I regretting paying for rush shipping.  Sorry, again, back to you.ALEXI can’t believe I look like a man.Alex looks away sadly.  Dave sees he has to do something.DAVEAl, you’re beautiful.  You don’t look like a man.  You sound like a man.  And you have a man’s name.  And you’re wearing the most iconic drag costume of all time.  It’s an honest mistake.  But on the bright side, the hottest guy here thinks you’re the hottest guy here.  ALEXNot what I was going for.  DAVESometimes you gotta roll with it, Al.  God gave you melons, make melonade. Happy Endings     "Spooky Endings" [205]     27B.Shooting Script (Yellow Rev.) 08/29/11      (III)CONTINUED:C25C25(CONTINUED)TV Calling - For educational purposes only

ALEXHuh?  DAVEBe the man, girl.  Go win that drag queen contest. OMITTED2626Happy Endings     "Spooky Endings" [205]     28.Shooting Script (Full Pink)08/29/11      (III)CONTINUED:2525TV Calling - For educational purposes only

OMITTED2727OMITTED2828Happy Endings     "Spooky Endings" [205]     29.Shooting Script (Full Pink)08/29/11      (III)TV Calling - For educational purposes only

OMITTED2929INT. WAREHOUSE PARTY - STAGE AREA - A LITTLE LATER (NIGHT 2)3030Jane and Brad enter. JANEAh, it’s nice to be back in the city where everything’s normal.Happy Endings     "Spooky Endings" [205]     30.Shooting Script (Full Pink)08/29/11      (III)(CONTINUED)TV Calling - For educational purposes only

MC (O.S.)And our next contestant in the drag queen contest: Alex Kerkovich! Alex gets on stage and struts her stuff.  Hard!  The music’s playing, the lights are flashing, the crowd is cheering.  She’s killing it.BRADYup.  Totally normal. We see the friends watching Alex.  Dave beams.  DAVEThat’s my girl.  Slash guy.REVEAL: Rick, still as Lincoln, is in Penny’s costume.PENNYGuys, this is Rick...Everyone groans. *FADE OUT.END OF ACT THREEHappy Endings     "Spooky Endings" [205]     31.Shooting Script (Full Pink)08/29/11      (III)CONTINUED:3030TV Calling - For educational purposes only

TAGFADE IN:INT. WAREHOUSE PARTY - STAGE AREA - A LITTLE LATER (NIGHT 2)3131The friends congratulate Alex who wears a Runner Up sash. JANE(to Dave, Alex)Guys, I think it’s adorable you decided to go with a couples costume after all. DAVE*What?*BRADElton John and Marilyn Monroe. *Candle In The Wind?  Brilliant. *Dave and Alex look at each other and sigh. DAVEAll right, I’ll take it. ALEXI can’t believe I got runner up.  I *was totally robbed.   *MAX (O.S.)Yeah, well...REVEAL: Max, still in a bathing suit, wears the First Place sash and crown, holding a bouquet and an oversized check.ALEX*What does he have that I don’t have?*MAX *A big, huge--*(off their looks)*A slightly above average--*(off their looks, sighs)*Fine.  A medium but serviceable--*CUT TO BLACK.*END OF SHOWHappy Endings     "Spooky Endings" [205]     32.Shooting Script (Full Pink)08/29/11      (TAG)