TV Calling - For educational purposes only

                                                            TV Calling - For educational purposes only

                                                               TV Calling - For educational purposes only

                                                           TV Calling - For educational purposes only

                                                                                                                                                                                                                                                                       TV Calling - For educational purposes only

                                                                                                                                  TV Calling - For educational purposes only

                                                                                                                                                                                                                                                                                                                                                               TV Calling - For educational purposes only

                                                                                                                                                                                                                                       TV Calling - For educational purposes only

                                                                                                                                                                                                              TV Calling - For educational purposes only

                                                                                                                                                                                                                                                                                      TV Calling - For educational purposes only

                                                                                                                                                                                                                                                                                               TV Calling - For educational purposes only

                                                                                                                                                                                                TV Calling - For educational purposes only

                                                                                                                                                                                                                                           TV Calling - For educational purposes only

                                                                                                                                                                                                                                                        TV Calling - For educational purposes only

                                                                                                                                                                                                                                                                                                                              TV Calling - For educational purposes only

                                                                                                                                                                                                                                                                                                                                                                                                                                                                            TV Calling - For educational purposes only

                                                                                                                                                                                                                                                                                                                                                                                                                                                     TV Calling - For educational purposes only

                                                                                                                                                                                                                                                                                                                                                                                             TV Calling - For educational purposes only

                                                                                                                                                                                                                                                                             TV Calling - For educational purposes only

                                                                                                                                                                                                                                                                                                                                 TV Calling - For educational purposes only

                                                                                                                                                                                                                                                                                                        TV Calling - For educational purposes only

                                                                                                                                                                                                                                                                                                              TV Calling - For educational purposes only

                                                                                                                                                                                                                          TV Calling - For educational purposes only

                                                                                                                                                                                          TV Calling - For educational purposes only

                                                                                                                                                                                                                            TV Calling - For educational purposes only

                                                                                                                                                                                                           TV Calling - For educational purposes only

                                                                                                                                                                      TV Calling - For educational purposes only

                                                                                                                                                                                                  TV Calling - For educational purposes only

                                                                                                                                                                                                                       TV Calling - For educational purposes only

                                                                                                                                                                      TV Calling - For educational purposes only

                                                                                                                                                                                                                                                  TV Calling - For educational purposes only

                                                                                                                                                                                                                                                                                                                                           TV Calling - For educational purposes only

                                                                                                                                                                                                                                                                                       TV Calling - For educational purposes only

                                                                                                                                                                                                                                                                                                        TV Calling - For educational purposes only

                                                                                                                                                                                                                                                                 TV Calling - For educational purposes only

                                                                                                                                                                                           TV Calling - For educational purposes only

                                                                                                                                                                                                     TV Calling - For educational purposes only

                                                                                                                                                                                                                                                                TV Calling - For educational purposes only

                                                                                                                                                                                                                                                  TV Calling - For educational purposes only

                                                                                                                                                                                                                                                                                                       TV Calling - For educational purposes only

                                                                                                                                                                                                                                             TV Calling - For educational purposes only

                                                                                                                                                                                                                                                             TV Calling - For educational purposes only

                                                                                                                                                                                                                                                 TV Calling - For educational purposes only

                                                                                                                                                                                                                             TV Calling - For educational purposes only

                                                                                                                                                                                                                                                                                                   TV Calling - For educational purposes only

                                                                                                                                                                                                                                           TV Calling - For educational purposes only

                                                                                                                                                                         TV Calling - For educational purposes only

                                                                                                                                                                                                                                                                                                                                                                         TV Calling - For educational purposes only

                                                                                                                                                                                                                                                                    TV Calling - For educational purposes only

                                                                                                                                                                                                                                                        TV Calling - For educational purposes only

                                                                                                                                                                                                                                         TV Calling - For educational purposes only

                                                                       TV Calling - For educational purposes only

                                                                                                                                                                                                                                                                                                      TV Calling - For educational purposes only

                                                                                                                                                                                                                                  TV Calling - For educational purposes only

                                                                                                                                                                                                                                                                    TV Calling - For educational purposes only

                                                                                                                                                                                                                                                                                                                                                                                                                                               TV Calling - For educational purposes only

                                                                                                                                                                                                                                                                                                                                                                  TV Calling - For educational purposes only

                                                                                                                                                                                                                                                                                                                                                                                                                                                                TV Calling - For educational purposes only

                                                                                                                                                                                                                                                                                                                                                  TV Calling - For educational purposes only

                                                                                                                                                                                                                                                                                                                                                                                                                                                                                                              TV Calling - For educational purposes only

                                                                                                                                                                                                                                                                                         TV Calling - For educational purposes only

                                                                                                                                                                                                                                                                                 TV Calling - For educational purposes only

                                                                                                                                                                                                                                                                                                                                                                     TV Calling - For educational purposes only

                                                                                                                                                                                                                  TV Calling - For educational purposes only

                                                                                                                                                                                               TV Calling - For educational purposes only

                                                                                                                                                                                                                    TV Calling - For educational purposes only

                                                                                                      